{
	"info": {
		"_postman_id": "c07af370-3aec-4ab3-a6fa-31e8eeb6da29",
		"name": "Polling app - Vote",
		"schema": "https://schema.getpostman.com/json/collection/v2.1.0/collection.json"
	},
	"item": [
		{
			"name": "Sign in simple user with username for voting",
			"event": [
				{
					"listen": "test",
					"script": {
						"exec": [
							"pm.test(\"Status code is 200\", function () {\r",
							"    pm.response.to.have.status(200);\r",
							"});\r",
							"\r",
							"pm.test(\"Response time is less than 200ms\", function () {\r",
							"    pm.expect(pm.response.responseTime).to.be.below(200);\r",
							"});\r",
							"\r",
							"pm.test(\"Body matches string 1\", function () {\r",
							"    pm.expect(pm.response.text()).to.include(\"accessToken\");\r",
							"});\r",
							"\r",
							"pm.test(\"Body matches string 2\", function () {\r",
							"    pm.expect(pm.response.text()).to.include(\"Bearer\");\r",
							"});\r",
							"\r",
							"var jsonData = pm.response.json();\r",
							"pm.environment.set(\"SimpleAccessToken\", jsonData.accessToken);"
						],
						"type": "text/javascript"
					}
				}
			],
			"request": {
				"method": "POST",
				"header": [
					{
						"key": "Content-Type",
						"value": "application/json",
						"type": "text"
					}
				],
				"body": {
					"mode": "raw",
					"raw": "{\r\n    \"usernameOrEmail\": \"{{simpleusername}}\",\r\n    \"password\": \"{{simplepassword}}\"\r\n}"
				},
				"url": {
					"raw": "{{hostname}}/api/auth/signin",
					"host": [
						"{{hostname}}"
					],
					"path": [
						"api",
						"auth",
						"signin"
					]
				}
			},
			"response": []
		},
		{
			"name": "GET all polls by params for voting",
			"event": [
				{
					"listen": "test",
					"script": {
						"exec": [
							"const response = pm.response.json();\r",
							"const activePolls = new Array;\r",
							"let length = response.content.length;\r",
							"for(let i=0;i<length;i++) {\r",
							"    if (response.content[i].expired == false) {\r",
							"        activePolls.push(response.content[i])\r",
							"    }\r",
							"}\r",
							"pm.environment.set(\"activePolls\", activePolls);"
						],
						"type": "text/javascript"
					}
				}
			],
			"request": {
				"method": "GET",
				"header": [],
				"url": {
					"raw": "{{hostname}}/api/polls?page=0&size=30",
					"host": [
						"{{hostname}}"
					],
					"path": [
						"api",
						"polls"
					],
					"query": [
						{
							"key": "page",
							"value": "0"
						},
						{
							"key": "size",
							"value": "30"
						}
					]
				}
			},
			"response": []
		},
		{
			"name": "Get votes for user for voting",
			"event": [
				{
					"listen": "test",
					"script": {
						"exec": [
							"const response = pm.response.json();\r",
							"const activePolls = pm.environment.get(\"activePolls\");\r",
							"const activeNonVotedPolls = activePolls;\r",
							"console.log(activePolls);\r",
							"for (let i=0;i<response.content.length;i++) {\r",
							"    for (let j=0;j<activePolls.length;j++) {\r",
							"        if (response.content[i].id == activePolls[j].id) {\r",
							"            activeNonVotedPolls.splice(j, 1);\r",
							"        }\r",
							"    }\r",
							"}\r",
							"const activeNonVotedPoll = activeNonVotedPolls[0].id;\r",
							"console.log(activeNonVotedPoll);\r",
							"const activeNonVotedVote = activeNonVotedPolls[0].choices[0].id;\r",
							"console.log(activeNonVotedVote);\r",
							"pm.environment.set(\"activeNonVotedPoll\", activeNonVotedPoll);\r",
							"pm.environment.set(\"activeNonVotedVote\", activeNonVotedVote);"
						],
						"type": "text/javascript"
					}
				}
			],
			"request": {
				"auth": {
					"type": "bearer",
					"bearer": [
						{
							"key": "token",
							"value": "{{accessTokenSimple}}",
							"type": "string"
						}
					]
				},
				"method": "GET",
				"header": [],
				"url": {
					"raw": "{{hostname}}/api/users/simpleuser/votes",
					"host": [
						"{{hostname}}"
					],
					"path": [
						"api",
						"users",
						"simpleuser",
						"votes"
					]
				}
			},
			"response": []
		},
		{
			"name": "Vote in a poll",
			"event": [
				{
					"listen": "prerequest",
					"script": {
						"exec": [
							""
						],
						"type": "text/javascript"
					}
				},
				{
					"listen": "test",
					"script": {
						"exec": [
							"const lastPollVoted = pm.environment.get(\"activeNonVotedPoll\");\r",
							"const lastVoteVoted = pm.environment.get(\"activeNonVotedVote\");\r",
							"\r",
							"pm.test(\"Status code is 200\", function () {\r",
							"    pm.response.to.have.status(200);\r",
							"});\r",
							"\r",
							"pm.test(\"Check the response body for id\", function () {\r",
							"    pm.expect(pm.response.text()).to.include(\"id\");\r",
							"});\r",
							"\r",
							"pm.test(\"Check the id\", function () {\r",
							"    var jsonTokenData = pm.response.json();\r",
							"    pm.expect(jsonTokenData.id).to.eql(lastPollVoted);\r",
							"});\r",
							"\r",
							"pm.test(\"Check the response body for selectedChoice\", function () {\r",
							"    pm.expect(pm.response.text()).to.include(\"selectedChoice\");\r",
							"});\r",
							"\r",
							"pm.test(\"Check the selectedChoice id\", function () {\r",
							"    var jsonTokenData = pm.response.json();\r",
							"    pm.expect(jsonTokenData.selectedChoice).to.eql(lastVoteVoted);\r",
							"});\r",
							"\r",
							"pm.environment.set(\"lastPollVoted\", lastPollVoted);\r",
							"pm.environment.set(\"lastVoteVoted\", lastVoteVoted);"
						],
						"type": "text/javascript"
					}
				}
			],
			"request": {
				"auth": {
					"type": "bearer",
					"bearer": [
						{
							"key": "token",
							"value": "{{SimpleAccessToken}}",
							"type": "string"
						}
					]
				},
				"method": "POST",
				"header": [
					{
						"key": "Content-Type",
						"value": "application/json",
						"type": "text"
					}
				],
				"body": {
					"mode": "raw",
					"raw": "{\r\n    \"choiceId\": {{activeNonVotedVote}}\r\n}"
				},
				"url": {
					"raw": "{{hostname}}/api/polls/{{activeNonVotedPoll}}/votes",
					"host": [
						"{{hostname}}"
					],
					"path": [
						"api",
						"polls",
						"{{activeNonVotedPoll}}",
						"votes"
					]
				}
			},
			"response": []
		},
		{
			"name": "Get votes for user",
			"event": [
				{
					"listen": "test",
					"script": {
						"exec": [
							"pm.test(\"Status code is 200\", function () {\r",
							"    pm.response.to.have.status(200);\r",
							"});\r",
							"\r",
							"pm.test(\"Check response body for poll id\", function () {\r",
							"    pm.expect(pm.response.text()).to.include(\"id\");\r",
							"});\r",
							"\r",
							"pm.test(\"Check response body for selectedChoice\", function () {\r",
							"    pm.expect(pm.response.text()).to.include(\"selectedChoice\");\r",
							"});\r",
							"\r",
							"var jsonData = pm.response.json();\r",
							"const lastVoteVoted = pm.environment.get(\"lastVoteVoted\");\r",
							"\r",
							"pm.test(\"Check if the last vote is in the list\", function () {\r",
							"    pm.expect(jsonData.content[0].selectedChoice).to.eql(lastVoteVoted);\r",
							"});\r",
							"\r",
							""
						],
						"type": "text/javascript"
					}
				}
			],
			"request": {
				"auth": {
					"type": "bearer",
					"bearer": [
						{
							"key": "token",
							"value": "{{SimpleAccessToken}}",
							"type": "string"
						}
					]
				},
				"method": "GET",
				"header": [],
				"url": {
					"raw": "{{hostname}}/api/users/simpleuser/votes",
					"host": [
						"{{hostname}}"
					],
					"path": [
						"api",
						"users",
						"simpleuser",
						"votes"
					]
				}
			},
			"response": []
		},
		{
			"name": "Get last poll voted by Id",
			"event": [
				{
					"listen": "test",
					"script": {
						"exec": [
							"pm.test(\"Status code is 200\", function () {\r",
							"    pm.response.to.have.status(200);\r",
							"});\r",
							"\r",
							"pm.test(\"Check the response body fo question\", function () {\r",
							"    pm.expect(pm.response.text()).to.include(\"question\");\r",
							"});\r",
							"\r",
							"pm.test(\"Check the response body fo choices\", function () {\r",
							"    pm.expect(pm.response.text()).to.include(\"choices\");\r",
							"});\r",
							"\r",
							"var jsonData = pm.response.json();\r",
							"tests[\"Check if poll have any votes\"] = jsonData.totalVotes > 0;"
						],
						"type": "text/javascript"
					}
				}
			],
			"request": {
				"method": "GET",
				"header": [],
				"url": {
					"raw": "{{hostname}}/api/polls/{{lastPollVoted}}",
					"host": [
						"{{hostname}}"
					],
					"path": [
						"api",
						"polls",
						"{{lastPollVoted}}"
					]
				}
			},
			"response": []
		},
		{
			"name": "GET all expired polls by params for voting Copy",
			"event": [
				{
					"listen": "test",
					"script": {
						"exec": [
							"const response = pm.response.json();\r",
							"const expiredPolls = new Array;\r",
							"let length = response.content.length;\r",
							"for(let i=0;i<length;i++) {\r",
							"    if (response.content[i].expired == true) {\r",
							"        expiredPolls.push(response.content[i])\r",
							"    }\r",
							"}\r",
							"console.log(expiredPolls);\r",
							"pm.environment.set(\"expiredPollId\", expiredPolls[0].id);\r",
							"pm.environment.set(\"expiredPollVoteId\", expiredPolls[0].choices[0].id);"
						],
						"type": "text/javascript"
					}
				}
			],
			"request": {
				"method": "GET",
				"header": [],
				"url": {
					"raw": "{{hostname}}/api/polls?page=0&size=30",
					"host": [
						"{{hostname}}"
					],
					"path": [
						"api",
						"polls"
					],
					"query": [
						{
							"key": "page",
							"value": "0"
						},
						{
							"key": "size",
							"value": "30"
						}
					]
				}
			},
			"response": []
		},
		{
			"name": "Vote in expired poll",
			"event": [
				{
					"listen": "prerequest",
					"script": {
						"exec": [
							""
						],
						"type": "text/javascript"
					}
				},
				{
					"listen": "test",
					"script": {
						"exec": [
							"pm.test(\"Status code is 400\", function () {\r",
							"    pm.response.to.have.status(400);\r",
							"});\r",
							"\r",
							"var jsonData = pm.response.json();\r",
							"\r",
							"pm.test(\"Check error\", function () {\r",
							"    pm.expect(jsonData.error).to.eql(\"Bad Request\");\r",
							"});\r",
							"\r",
							"pm.test(\"Check message\", function () {\r",
							"    pm.expect(jsonData.message).to.eql(\"Sorry! This Poll has already expired\");\r",
							"});"
						],
						"type": "text/javascript"
					}
				}
			],
			"request": {
				"auth": {
					"type": "bearer",
					"bearer": [
						{
							"key": "token",
							"value": "{{SimpleAccessToken}}",
							"type": "string"
						}
					]
				},
				"method": "POST",
				"header": [
					{
						"key": "Content-Type",
						"value": "application/json",
						"type": "text"
					}
				],
				"body": {
					"mode": "raw",
					"raw": "{\r\n    \"choiceId\": {{expiredPollVoteId}}\r\n}"
				},
				"url": {
					"raw": "{{hostname}}/api/polls/{{expiredPollId}}/votes",
					"host": [
						"{{hostname}}"
					],
					"path": [
						"api",
						"polls",
						"{{expiredPollId}}",
						"votes"
					]
				}
			},
			"response": []
		},
		{
			"name": "Vote in a poll for second time",
			"event": [
				{
					"listen": "prerequest",
					"script": {
						"exec": [
							""
						],
						"type": "text/javascript"
					}
				},
				{
					"listen": "test",
					"script": {
						"exec": [
							"pm.test(\"Status code is 400\", function () {\r",
							"    pm.response.to.have.status(400);\r",
							"});\r",
							"\r",
							"var jsonData = pm.response.json();\r",
							"\r",
							"pm.test(\"Check error\", function () {\r",
							"    pm.expect(jsonData.error).to.eql(\"Bad Request\");\r",
							"});\r",
							"\r",
							"pm.test(\"Check message\", function () {\r",
							"    pm.expect(jsonData.message).to.eql(\"Sorry! You have already cast your vote in this poll\");\r",
							"});"
						],
						"type": "text/javascript"
					}
				}
			],
			"request": {
				"auth": {
					"type": "bearer",
					"bearer": [
						{
							"key": "token",
							"value": "{{SimpleAccessToken}}",
							"type": "string"
						}
					]
				},
				"method": "POST",
				"header": [
					{
						"key": "Content-Type",
						"value": "application/json",
						"type": "text"
					}
				],
				"body": {
					"mode": "raw",
					"raw": "{\r\n    \"choiceId\": {{lastVoteVoted}}\r\n}"
				},
				"url": {
					"raw": "{{hostname}}/api/polls/{{lastPollVoted}}/votes",
					"host": [
						"{{hostname}}"
					],
					"path": [
						"api",
						"polls",
						"{{lastPollVoted}}",
						"votes"
					]
				}
			},
			"response": []
		}
	]
}