{
	"info": {
		"_postman_id": "7f3d1e47-6a9f-43f7-a993-4f52c6b0ee86",
		"name": "Polling app - Create poll",
		"schema": "https://schema.getpostman.com/json/collection/v2.1.0/collection.json"
	},
	"item": [
		{
			"name": "Sign in admin user with username for creating",
			"event": [
				{
					"listen": "test",
					"script": {
						"exec": [
							"pm.test(\"Status code is 200\", function () {\r",
							"    pm.response.to.have.status(200);\r",
							"});\r",
							"\r",
							"pm.test(\"Response time is less than 200ms\", function () {\r",
							"    pm.expect(pm.response.responseTime).to.be.below(200);\r",
							"});\r",
							"\r",
							"pm.test(\"Body matches string 1\", function () {\r",
							"    pm.expect(pm.response.text()).to.include(\"accessToken\");\r",
							"});\r",
							"\r",
							"pm.test(\"Body matches string 2\", function () {\r",
							"    pm.expect(pm.response.text()).to.include(\"Bearer\");\r",
							"});\r",
							"\r",
							"var jsonData = pm.response.json();\r",
							"pm.environment.set(\"AdminAccessToken\", jsonData.accessToken);"
						],
						"type": "text/javascript"
					}
				}
			],
			"request": {
				"method": "POST",
				"header": [
					{
						"key": "Content-Type",
						"value": "application/json",
						"type": "text"
					}
				],
				"body": {
					"mode": "raw",
					"raw": "{\r\n\t\"usernameOrEmail\":\"{{adminusername}}\",\r\n\t\"password\":\"{{adminpassword}}\"\r\n}"
				},
				"url": {
					"raw": "{{hostname}}/api/auth/signin",
					"host": [
						"{{hostname}}"
					],
					"path": [
						"api",
						"auth",
						"signin"
					]
				}
			},
			"response": []
		},
		{
			"name": "Get admin user profile for creation",
			"event": [
				{
					"listen": "test",
					"script": {
						"exec": [
							"var jsonData = pm.response.json();\r",
							"\r",
							"pm.environment.set(\"pollCount\", jsonData.pollCount);\r",
							"pm.environment.set(\"voteCount\", jsonData.voteCount);"
						],
						"type": "text/javascript"
					}
				}
			],
			"request": {
				"auth": {
					"type": "bearer",
					"bearer": [
						{
							"key": "token",
							"value": "",
							"type": "string"
						}
					]
				},
				"method": "GET",
				"header": [],
				"url": {
					"raw": "{{hostname}}/api/users/{{adminusername}}",
					"host": [
						"{{hostname}}"
					],
					"path": [
						"api",
						"users",
						"{{adminusername}}"
					]
				}
			},
			"response": []
		},
		{
			"name": "Create new poll",
			"event": [
				{
					"listen": "prerequest",
					"script": {
						"exec": [
							"const question = \"Color question No \" + Math.floor(Math.random()*100000);\r",
							"const days = Math.floor(Math.random()*7);\r",
							"const hours = Math.floor(Math.random()*23);\r",
							"pm.environment.set(\"question\", question);\r",
							"pm.environment.set(\"days\", days);\r",
							"pm.environment.set(\"hours\", hours);"
						],
						"type": "text/javascript"
					}
				},
				{
					"listen": "test",
					"script": {
						"exec": [
							"pm.test(\"Status code is 201\", function () {\r",
							"    pm.response.to.have.status(201);\r",
							"});\r",
							"\r",
							"pm.test(\"Check the response body for success \", function () {\r",
							"    pm.expect(pm.response.text()).to.include(\"success\");\r",
							"});\r",
							"\r",
							"pm.test(\"Check if success is true\", function () {\r",
							"    var jsonData = pm.response.json();\r",
							"    pm.expect(jsonData.success).to.eql(true);\r",
							"});\r",
							"\r",
							"pm.test(\"Check the response body for message \", function () {\r",
							"    pm.expect(pm.response.text()).to.include(\"message\");\r",
							"});\r",
							"\r",
							"pm.test(\"Check the message\", function () {\r",
							"    var jsonData = pm.response.json();\r",
							"    pm.expect(jsonData.message).to.eql(\"Poll Created Successfully\");\r",
							"});"
						],
						"type": "text/javascript"
					}
				}
			],
			"request": {
				"auth": {
					"type": "bearer",
					"bearer": [
						{
							"key": "token",
							"value": "{{AdminAccessToken}}",
							"type": "string"
						}
					]
				},
				"method": "POST",
				"header": [
					{
						"key": "Content-Type",
						"value": "application/json",
						"type": "text"
					}
				],
				"body": {
					"mode": "raw",
					"raw": "{\r\n\t\"question\":\"{{question}}\",\r\n\t\"choices\":[\r\n\t\t{\"text\":\"{{$randomColor}}\"},\r\n\t\t{\"text\":\"{{$randomColor}}\"},\r\n\t\t{\"text\":\"{{$randomColor}}\"}\r\n\t\t],\r\n\t\"pollLength\":\r\n\t{\r\n\t\t\"days\": {{days}},\r\n\t\t\"hours\": {{hours}}\r\n\t}\r\n}"
				},
				"url": {
					"raw": "{{hostname}}/api/polls",
					"host": [
						"{{hostname}}"
					],
					"path": [
						"api",
						"polls"
					]
				}
			},
			"response": []
		},
		{
			"name": "GET all polls by params for last poll ID",
			"event": [
				{
					"listen": "test",
					"script": {
						"exec": [
							"const response = pm.response.json();\r",
							"const activePolls = new Array;\r",
							"let question = pm.environment.get(\"question\");\r",
							"let lastPollID;\r",
							"let length = response.content.length;\r",
							"console.log(length)\r",
							"for(let i=0;i<length;i++) {\r",
							"    if (response.content[i].question == question) {\r",
							"        lastPollID = response.content[i].id;\r",
							"    }\r",
							"}\r",
							"pm.environment.set(\"lastPollID\", lastPollID);"
						],
						"type": "text/javascript"
					}
				}
			],
			"request": {
				"method": "GET",
				"header": [],
				"url": {
					"raw": "{{hostname}}/api/polls?page=0&size=30",
					"host": [
						"{{hostname}}"
					],
					"path": [
						"api",
						"polls"
					],
					"query": [
						{
							"key": "page",
							"value": "0"
						},
						{
							"key": "size",
							"value": "30"
						}
					]
				}
			},
			"response": []
		},
		{
			"name": "Get poll by id",
			"event": [
				{
					"listen": "test",
					"script": {
						"exec": [
							"let question = pm.environment.get(\"question\");\r",
							"\r",
							"pm.test(\"Status code is 200\", function () {\r",
							"    pm.response.to.have.status(200);\r",
							"});\r",
							"\r",
							"pm.test(\"Response time is less than 200ms\", function () {\r",
							"    pm.expect(pm.response.responseTime).to.be.below(200);\r",
							"});\r",
							"\r",
							"pm.test(\"Check the message\", function () {\r",
							"    var jsonData = pm.response.json();\r",
							"    pm.expect(jsonData.question).to.eql(question);\r",
							"});"
						],
						"type": "text/javascript"
					}
				}
			],
			"request": {
				"method": "GET",
				"header": [],
				"url": {
					"raw": "{{hostname}}/api/polls/{{lastPollID}}",
					"host": [
						"{{hostname}}"
					],
					"path": [
						"api",
						"polls",
						"{{lastPollID}}"
					]
				}
			},
			"response": []
		},
		{
			"name": "Get admin user profile for verification",
			"event": [
				{
					"listen": "test",
					"script": {
						"exec": [
							"var jsonData = pm.response.json();\r",
							"let pollCount = pm.environment.get(\"pollCount\");\r",
							"let voteCount = pm.environment.get(\"voteCount\");\r",
							"pollCount = pollCount + 1;\r",
							"\r",
							"pm.test(\"Check the message\", function () {\r",
							"    pm.expect(jsonData.pollCount).to.eql(pollCount);\r",
							"    pm.expect(jsonData.voteCount).to.eql(voteCount);\r",
							"});"
						],
						"type": "text/javascript"
					}
				}
			],
			"request": {
				"auth": {
					"type": "bearer",
					"bearer": [
						{
							"key": "token",
							"value": "",
							"type": "string"
						}
					]
				},
				"method": "GET",
				"header": [],
				"url": {
					"raw": "{{hostname}}/api/users/{{adminusername}}",
					"host": [
						"{{hostname}}"
					],
					"path": [
						"api",
						"users",
						"{{adminusername}}"
					]
				}
			},
			"response": []
		},
		{
			"name": "Get polls for user",
			"event": [
				{
					"listen": "test",
					"script": {
						"exec": [
							"var jsonData = pm.response.json();\r",
							"let lastPollID =  pm.environment.get(\"lastPollID\");\r",
							"let question =  pm.environment.get(\"question\");\r",
							"\r",
							"pm.test(\"Check the response\", function () {\r",
							"    pm.expect(jsonData.content[0].id).to.eql(lastPollID);\r",
							"    pm.expect(jsonData.content[0].question).to.eql(question);\r",
							"    \r",
							"});"
						],
						"type": "text/javascript"
					}
				}
			],
			"request": {
				"method": "GET",
				"header": [],
				"url": {
					"raw": "{{hostname}}/api/users/{{adminusername}}/polls",
					"host": [
						"{{hostname}}"
					],
					"path": [
						"api",
						"users",
						"{{adminusername}}",
						"polls"
					]
				}
			},
			"response": []
		},
		{
			"name": "Create new poll without question",
			"event": [
				{
					"listen": "prerequest",
					"script": {
						"exec": [
							""
						],
						"type": "text/javascript"
					}
				},
				{
					"listen": "test",
					"script": {
						"exec": [
							"pm.test(\"Status code is 400\", function () {\r",
							"    pm.response.to.have.status(400);\r",
							"});\r",
							"\r",
							"pm.test(\"Check if success is true\", function () {    \r",
							"    var jsonData = pm.response.json();\r",
							"    pm.expect(jsonData.error).to.eql(\"Bad Request\");\r",
							"});"
						],
						"type": "text/javascript"
					}
				}
			],
			"request": {
				"auth": {
					"type": "bearer",
					"bearer": [
						{
							"key": "token",
							"value": "{{AdminAccessToken}}",
							"type": "string"
						}
					]
				},
				"method": "POST",
				"header": [
					{
						"key": "Content-Type",
						"value": "application/json",
						"type": "text"
					}
				],
				"body": {
					"mode": "raw",
					"raw": "{\r\n\t\"question\":\"\",\r\n\t\"choices\":[\r\n\t\t{\"text\":\"{{$randomColor}}\"},\r\n\t\t{\"text\":\"{{$randomColor}}\"},\r\n\t\t{\"text\":\"{{$randomColor}}\"}\r\n\t\t],\r\n\t\"pollLength\":\r\n\t{\r\n\t\t\"days\": {{days}},\r\n\t\t\"hours\": {{hours}}\r\n\t}\r\n}"
				},
				"url": {
					"raw": "{{hostname}}/api/polls",
					"host": [
						"{{hostname}}"
					],
					"path": [
						"api",
						"polls"
					]
				}
			},
			"response": []
		},
		{
			"name": "Create new poll without options",
			"event": [
				{
					"listen": "prerequest",
					"script": {
						"exec": [
							""
						],
						"type": "text/javascript"
					}
				},
				{
					"listen": "test",
					"script": {
						"exec": [
							"pm.test(\"Status code is 400\", function () {\r",
							"    pm.response.to.have.status(400);\r",
							"});\r",
							"\r",
							"pm.test(\"Check if success is true\", function () {    \r",
							"    var jsonData = pm.response.json();\r",
							"    pm.expect(jsonData.error).to.eql(\"Bad Request\");\r",
							"});"
						],
						"type": "text/javascript"
					}
				}
			],
			"request": {
				"auth": {
					"type": "bearer",
					"bearer": [
						{
							"key": "token",
							"value": "{{AdminAccessToken}}",
							"type": "string"
						}
					]
				},
				"method": "POST",
				"header": [
					{
						"key": "Content-Type",
						"value": "application/json",
						"type": "text"
					}
				],
				"body": {
					"mode": "raw",
					"raw": "{\r\n\t\"question\":\"{{question}}\",\r\n\t\"choices\":[\r\n\t\t{\"text\":\"\"},\r\n\t\t{\"text\":\"\"},\r\n\t\t{\"text\":\"\"}\r\n\t\t],\r\n\t\"pollLength\":\r\n\t{\r\n\t\t\"days\": {{days}},\r\n\t\t\"hours\": {{hours}}\r\n\t}\r\n}"
				},
				"url": {
					"raw": "{{hostname}}/api/polls",
					"host": [
						"{{hostname}}"
					],
					"path": [
						"api",
						"polls"
					]
				}
			},
			"response": []
		},
		{
			"name": "Create new poll without poll lenght",
			"event": [
				{
					"listen": "prerequest",
					"script": {
						"exec": [
							""
						],
						"type": "text/javascript"
					}
				},
				{
					"listen": "test",
					"script": {
						"exec": [
							"pm.test(\"Status code is 400\", function () {\r",
							"    pm.response.to.have.status(400);\r",
							"});\r",
							"\r",
							"pm.test(\"Check if success is true\", function () {    \r",
							"    var jsonData = pm.response.json();\r",
							"    pm.expect(jsonData.error).to.eql(\"Bad Request\");\r",
							"});"
						],
						"type": "text/javascript"
					}
				}
			],
			"request": {
				"auth": {
					"type": "bearer",
					"bearer": [
						{
							"key": "token",
							"value": "{{AdminAccessToken}}",
							"type": "string"
						}
					]
				},
				"method": "POST",
				"header": [
					{
						"key": "Content-Type",
						"value": "application/json",
						"type": "text"
					}
				],
				"body": {
					"mode": "raw",
					"raw": "{\r\n\t\"question\":\"{{question}}\",\r\n\t\"choices\":[\r\n\t\t{\"text\":\"{{$randomColor}}\"},\r\n\t\t{\"text\":\"{{$randomColor}}\"},\r\n\t\t{\"text\":\"{{$randomColor}}\"}\r\n\t\t],\r\n\t\"pollLength\":\r\n\t{\r\n\t\t\"days\": ,\r\n\t\t\"hours\":\r\n\t}\r\n}"
				},
				"url": {
					"raw": "{{hostname}}/api/polls",
					"host": [
						"{{hostname}}"
					],
					"path": [
						"api",
						"polls"
					]
				}
			},
			"response": []
		}
	]
}