{
	"info": {
		"_postman_id": "4b89d897-e37a-4aee-babc-cc2401dac507",
		"name": "Polling app - Login",
		"schema": "https://schema.getpostman.com/json/collection/v2.1.0/collection.json"
	},
	"item": [
		{
			"name": "Sign in simple user with username",
			"event": [
				{
					"listen": "test",
					"script": {
						"exec": [
							"pm.test(\"Status code is 200\", function () {\r",
							"    pm.response.to.have.status(200);\r",
							"});\r",
							"\r",
							"pm.test(\"Response time is less than 200ms\", function () {\r",
							"    pm.expect(pm.response.responseTime).to.be.below(200);\r",
							"});\r",
							"\r",
							"pm.test(\"Body matches string 1\", function () {\r",
							"    pm.expect(pm.response.text()).to.include(\"accessToken\");\r",
							"});\r",
							"\r",
							"pm.test(\"Body matches string 2\", function () {\r",
							"    pm.expect(pm.response.text()).to.include(\"Bearer\");\r",
							"});\r",
							"\r",
							"var jsonData = pm.response.json();\r",
							"pm.environment.set(\"SimpleAccessToken\", jsonData.accessToken);"
						],
						"type": "text/javascript"
					}
				}
			],
			"request": {
				"method": "POST",
				"header": [
					{
						"key": "Content-Type",
						"value": "application/json",
						"type": "text"
					}
				],
				"body": {
					"mode": "raw",
					"raw": "{\r\n    \"usernameOrEmail\": \"{{simpleusername}}\",\r\n    \"password\": \"{{simplepassword}}\"\r\n}"
				},
				"url": {
					"raw": "{{hostname}}/api/auth/signin",
					"host": [
						"{{hostname}}"
					],
					"path": [
						"api",
						"auth",
						"signin"
					]
				}
			},
			"response": []
		},
		{
			"name": "Sign in simple user with email",
			"event": [
				{
					"listen": "test",
					"script": {
						"exec": [
							"pm.test(\"Status code is 200\", function () {\r",
							"    pm.response.to.have.status(200);\r",
							"});\r",
							"\r",
							"pm.test(\"Response time is less than 200ms\", function () {\r",
							"    pm.expect(pm.response.responseTime).to.be.below(200);\r",
							"});\r",
							"\r",
							"pm.test(\"Body matches string 1\", function () {\r",
							"    pm.expect(pm.response.text()).to.include(\"accessToken\");\r",
							"});\r",
							"\r",
							"pm.test(\"Body matches string 2\", function () {\r",
							"    pm.expect(pm.response.text()).to.include(\"Bearer\");\r",
							"});\r",
							"\r",
							"var jsonData = pm.response.json();\r",
							"pm.environment.set(\"SimpleAccessToken\", jsonData.accessToken);"
						],
						"type": "text/javascript"
					}
				}
			],
			"request": {
				"method": "POST",
				"header": [
					{
						"key": "Content-Type",
						"value": "application/json",
						"type": "text"
					}
				],
				"body": {
					"mode": "raw",
					"raw": "{\r\n    \"usernameOrEmail\": \"{{simpleemail}}\",\r\n    \"password\": \"{{simplepassword}}\"\r\n}"
				},
				"url": {
					"raw": "{{hostname}}/api/auth/signin",
					"host": [
						"{{hostname}}"
					],
					"path": [
						"api",
						"auth",
						"signin"
					]
				}
			},
			"response": []
		},
		{
			"name": "Get current simple user",
			"event": [
				{
					"listen": "test",
					"script": {
						"exec": [
							"var jsonData = pm.response.json();\r",
							"let username = pm.environment.get(\"simpleusername\");\r",
							"\r",
							"pm.test(\"Status code is 200\", function () {\r",
							"    pm.response.to.have.status(200);\r",
							"});\r",
							"\r",
							"pm.test(\"Check the ID\", function () {\r",
							"    pm.expect(jsonData.id).to.eql(467);\r",
							"});\r",
							"\r",
							"pm.test(\"Check the username\", function () {\r",
							"    pm.expect(jsonData.username).to.eql(username);\r",
							"});\r",
							"\r",
							"pm.test(\"Response time is less than 200ms\", function () {\r",
							"    pm.expect(pm.response.responseTime).to.be.below(200);\r",
							"});"
						],
						"type": "text/javascript"
					}
				}
			],
			"request": {
				"auth": {
					"type": "bearer",
					"bearer": [
						{
							"key": "token",
							"value": "{{SimpleAccessToken}}",
							"type": "string"
						}
					]
				},
				"method": "GET",
				"header": [],
				"url": {
					"raw": "{{hostname}}/api/user/me",
					"host": [
						"{{hostname}}"
					],
					"path": [
						"api",
						"user",
						"me"
					]
				}
			},
			"response": []
		},
		{
			"name": "Sign in admin user with username",
			"event": [
				{
					"listen": "test",
					"script": {
						"exec": [
							"pm.test(\"Status code is 200\", function () {\r",
							"    pm.response.to.have.status(200);\r",
							"});\r",
							"\r",
							"pm.test(\"Response time is less than 200ms\", function () {\r",
							"    pm.expect(pm.response.responseTime).to.be.below(200);\r",
							"});\r",
							"\r",
							"pm.test(\"Body matches string 1\", function () {\r",
							"    pm.expect(pm.response.text()).to.include(\"accessToken\");\r",
							"});\r",
							"\r",
							"pm.test(\"Body matches string 2\", function () {\r",
							"    pm.expect(pm.response.text()).to.include(\"Bearer\");\r",
							"});\r",
							"\r",
							"var jsonData = pm.response.json();\r",
							"pm.environment.set(\"AdminAccessToken\", jsonData.accessToken);"
						],
						"type": "text/javascript"
					}
				}
			],
			"request": {
				"method": "POST",
				"header": [
					{
						"key": "Content-Type",
						"value": "application/json",
						"type": "text"
					}
				],
				"body": {
					"mode": "raw",
					"raw": "{\r\n\t\"usernameOrEmail\":\"{{adminusername}}\",\r\n\t\"password\":\"{{adminpassword}}\"\r\n}"
				},
				"url": {
					"raw": "{{hostname}}/api/auth/signin",
					"host": [
						"{{hostname}}"
					],
					"path": [
						"api",
						"auth",
						"signin"
					]
				}
			},
			"response": []
		},
		{
			"name": "Sign in admin user with email",
			"event": [
				{
					"listen": "test",
					"script": {
						"exec": [
							"pm.test(\"Status code is 200\", function () {\r",
							"    pm.response.to.have.status(200);\r",
							"});\r",
							"\r",
							"pm.test(\"Response time is less than 200ms\", function () {\r",
							"    pm.expect(pm.response.responseTime).to.be.below(200);\r",
							"});\r",
							"\r",
							"pm.test(\"Body matches string 1\", function () {\r",
							"    pm.expect(pm.response.text()).to.include(\"accessToken\");\r",
							"});\r",
							"\r",
							"pm.test(\"Body matches string 2\", function () {\r",
							"    pm.expect(pm.response.text()).to.include(\"Bearer\");\r",
							"});\r",
							"\r",
							"var jsonData = pm.response.json();\r",
							"pm.environment.set(\"AdminAccessToken\", jsonData.accessToken);"
						],
						"type": "text/javascript"
					}
				}
			],
			"request": {
				"method": "POST",
				"header": [
					{
						"key": "Content-Type",
						"value": "application/json",
						"type": "text"
					}
				],
				"body": {
					"mode": "raw",
					"raw": "{\r\n\t\"usernameOrEmail\":\"{{adminemail}}\",\r\n\t\"password\":\"{{adminpassword}}\"\r\n}"
				},
				"url": {
					"raw": "{{hostname}}/api/auth/signin",
					"host": [
						"{{hostname}}"
					],
					"path": [
						"api",
						"auth",
						"signin"
					]
				}
			},
			"response": []
		},
		{
			"name": "Get current admin user",
			"event": [
				{
					"listen": "test",
					"script": {
						"exec": [
							"var jsonData = pm.response.json();\r",
							"let username = pm.environment.get(\"adminusername\");\r",
							"\r",
							"pm.test(\"Status code is 200\", function () {\r",
							"    pm.response.to.have.status(200);\r",
							"});\r",
							"\r",
							"pm.test(\"Check the ID\", function () {\r",
							"    pm.expect(jsonData.id).to.eql(468);\r",
							"});\r",
							"\r",
							"pm.test(\"Check the username\", function () {\r",
							"    pm.expect(jsonData.username).to.eql(username);\r",
							"});\r",
							"\r",
							"pm.test(\"Response time is less than 200ms\", function () {\r",
							"    pm.expect(pm.response.responseTime).to.be.below(200);\r",
							"});"
						],
						"type": "text/javascript"
					}
				}
			],
			"request": {
				"auth": {
					"type": "bearer",
					"bearer": [
						{
							"key": "token",
							"value": "{{AdminAccessToken}}",
							"type": "string"
						}
					]
				},
				"method": "GET",
				"header": [],
				"url": {
					"raw": "{{hostname}}/api/user/me",
					"host": [
						"{{hostname}}"
					],
					"path": [
						"api",
						"user",
						"me"
					]
				}
			},
			"response": []
		},
		{
			"name": "Sign in with wrong username",
			"event": [
				{
					"listen": "test",
					"script": {
						"exec": [
							"pm.test(\"Status code is 401\", function () {\r",
							"    pm.response.to.have.status(401);\r",
							"});\r",
							"\r",
							"pm.test(\"Response time is less than 200ms\", function () {\r",
							"    pm.expect(pm.response.responseTime).to.be.below(200);\r",
							"});\r",
							"\r",
							"pm.test(\"Check the error message\", function () {\r",
							"    var jsonData = pm.response.json();\r",
							"    pm.expect(jsonData.message).to.eql(\"Bad credentials\");\r",
							"    pm.expect(jsonData.error).to.eql(\"Unauthorized\");\r",
							"});"
						],
						"type": "text/javascript"
					}
				}
			],
			"request": {
				"method": "POST",
				"header": [
					{
						"key": "Content-Type",
						"value": "application/json",
						"type": "text"
					}
				],
				"body": {
					"mode": "raw",
					"raw": "{\r\n    \"usernameOrEmail\": \"{{simpleusername}}1\",\r\n    \"password\": \"{{simplepassword}}\"\r\n}"
				},
				"url": {
					"raw": "{{hostname}}/api/auth/signin",
					"host": [
						"{{hostname}}"
					],
					"path": [
						"api",
						"auth",
						"signin"
					]
				}
			},
			"response": []
		},
		{
			"name": "Sign in with wrong email",
			"event": [
				{
					"listen": "test",
					"script": {
						"exec": [
							"pm.test(\"Status code is 401\", function () {\r",
							"    pm.response.to.have.status(401);\r",
							"});\r",
							"\r",
							"pm.test(\"Response time is less than 200ms\", function () {\r",
							"    pm.expect(pm.response.responseTime).to.be.below(200);\r",
							"});\r",
							"\r",
							"pm.test(\"Check the error message\", function () {\r",
							"    var jsonData = pm.response.json();\r",
							"    pm.expect(jsonData.message).to.eql(\"Bad credentials\");\r",
							"    pm.expect(jsonData.error).to.eql(\"Unauthorized\");\r",
							"});"
						],
						"type": "text/javascript"
					}
				}
			],
			"request": {
				"method": "POST",
				"header": [
					{
						"key": "Content-Type",
						"value": "application/json",
						"type": "text"
					}
				],
				"body": {
					"mode": "raw",
					"raw": "{\r\n    \"usernameOrEmail\": \"{{simpleemail}}1\",\r\n    \"password\": \"{{simplepassword}}\"\r\n}"
				},
				"url": {
					"raw": "{{hostname}}/api/auth/signin",
					"host": [
						"{{hostname}}"
					],
					"path": [
						"api",
						"auth",
						"signin"
					]
				}
			},
			"response": []
		},
		{
			"name": "Sign in with wrong password",
			"event": [
				{
					"listen": "test",
					"script": {
						"exec": [
							"pm.test(\"Status code is 401\", function () {\r",
							"    pm.response.to.have.status(401);\r",
							"});\r",
							"\r",
							"pm.test(\"Response time is less than 200ms\", function () {\r",
							"    pm.expect(pm.response.responseTime).to.be.below(200);\r",
							"});\r",
							"\r",
							"pm.test(\"Check the error message\", function () {\r",
							"    var jsonData = pm.response.json();\r",
							"    pm.expect(jsonData.message).to.eql(\"Bad credentials\");\r",
							"    pm.expect(jsonData.error).to.eql(\"Unauthorized\");\r",
							"});"
						],
						"type": "text/javascript"
					}
				}
			],
			"request": {
				"method": "POST",
				"header": [
					{
						"key": "Content-Type",
						"value": "application/json",
						"type": "text"
					}
				],
				"body": {
					"mode": "raw",
					"raw": "{\r\n    \"usernameOrEmail\": \"{{simpleusername}}\",\r\n    \"password\": \"{{simplepassword}}1\"\r\n}"
				},
				"url": {
					"raw": "{{hostname}}/api/auth/signin",
					"host": [
						"{{hostname}}"
					],
					"path": [
						"api",
						"auth",
						"signin"
					]
				}
			},
			"response": []
		},
		{
			"name": "Sign in without username or email",
			"event": [
				{
					"listen": "test",
					"script": {
						"exec": [
							"pm.test(\"Status code is 401\", function () {\r",
							"    pm.response.to.have.status(400);\r",
							"});\r",
							"\r",
							"pm.test(\"Response time is less than 200ms\", function () {\r",
							"    pm.expect(pm.response.responseTime).to.be.below(200);\r",
							"});\r",
							"\r",
							"pm.test(\"Check the error message\", function () {\r",
							"    var jsonData = pm.response.json();\r",
							"    pm.expect(jsonData.error).to.eql(\"Bad Request\");\r",
							"});"
						],
						"type": "text/javascript"
					}
				}
			],
			"request": {
				"method": "POST",
				"header": [
					{
						"key": "Content-Type",
						"value": "application/json",
						"type": "text"
					}
				],
				"body": {
					"mode": "raw",
					"raw": "{\r\n    \"usernameOrEmail\": \"\",\r\n    \"password\": \"{{simplepassword}}1\"\r\n}"
				},
				"url": {
					"raw": "{{hostname}}/api/auth/signin",
					"host": [
						"{{hostname}}"
					],
					"path": [
						"api",
						"auth",
						"signin"
					]
				}
			},
			"response": []
		},
		{
			"name": "Sign in without password",
			"event": [
				{
					"listen": "test",
					"script": {
						"exec": [
							"pm.test(\"Status code is 401\", function () {\r",
							"    pm.response.to.have.status(400);\r",
							"});\r",
							"\r",
							"pm.test(\"Response time is less than 200ms\", function () {\r",
							"    pm.expect(pm.response.responseTime).to.be.below(200);\r",
							"});\r",
							"\r",
							"pm.test(\"Check the error message\", function () {\r",
							"    var jsonData = pm.response.json();\r",
							"    pm.expect(jsonData.error).to.eql(\"Bad Request\");\r",
							"});\r",
							"\r",
							"postman.setNextRequest(\"Check unavailabe username\");"
						],
						"type": "text/javascript"
					}
				}
			],
			"request": {
				"method": "POST",
				"header": [
					{
						"key": "Content-Type",
						"value": "application/json",
						"type": "text"
					}
				],
				"body": {
					"mode": "raw",
					"raw": "{\r\n    \"usernameOrEmail\": \"{{simpleusername}}\",\r\n    \"password\": \"\"\r\n}"
				},
				"url": {
					"raw": "{{hostname}}/api/auth/signin",
					"host": [
						"{{hostname}}"
					],
					"path": [
						"api",
						"auth",
						"signin"
					]
				}
			},
			"response": []
		}
	],
	"auth": {
		"type": "bearer"
	},
	"event": [
		{
			"listen": "prerequest",
			"script": {
				"type": "text/javascript",
				"exec": [
					""
				]
			}
		},
		{
			"listen": "test",
			"script": {
				"type": "text/javascript",
				"exec": [
					""
				]
			}
		}
	]
}